<div class="form-group">
          <select>
            <option value="0">Seleccione:</option>
            <?php
              $query = $mysqli -> query ("SELECT * FROM careers");
              while ($valores = mysqli_fetch_array($query)) {
                echo '<option value="'.$valores[id].'">'.$valores[careers].'</option>';
              }
            ?>
          </select>
        </div>